[
    {"cliente" : {
        "nombre" : "Tere",
        "password" : "password1",
        "idCliente" : 1,
        "direccion" : "San Miguel Petapa"   
    }
    },
    {"cliente" :{
        "nombre" : "Tere1",
        "password" : "password1",
        "idCliente" : 2,
        "direccion" : "San Miguel Petapa"   
    }
    }
]